<?xml version="1.0" encoding="UTF-8"?>
<svg width="6px" height="10px" viewBox="0 0 6 10" version="1.1" xmlns="http://www.w3.org/2000/svg" xmlns:xlink="http://www.w3.org/1999/xlink">
    <!-- Generator: Sketch 48.2 (47327) - http://www.bohemiancoding.com/sketch -->
    <title>Path 2</title>
    <desc>Created with Sketch.</desc>
    <defs></defs>
    <g id="Cikolatalar-/-UI-Design" stroke="none" stroke-width="1" fill="none" fill-rule="evenodd" transform="translate(-226.000000, -162.000000)" stroke-linecap="round" stroke-linejoin="round">
        <g id="Showcase" stroke="#D8B266" stroke-width="2">
            <g id="Breadcrumb" transform="translate(135.000000, 153.000000)">
                <polyline id="Path-2" transform="translate(94.000000, 14.000000) rotate(-90.000000) translate(-94.000000, -14.000000) " points="90 12 94 16 98 12"></polyline>
            </g>
        </g>
    </g>
</svg>